25

8 8
6
f 0 0 e
h 1 5 n
t 2 2 n
h 3 1 s
r 4 5 n
h 5 5 w
7 3

1 2
1
r 0 0 s
5 2

10 10
2
t 9 6 e
h 8 2 s
5 1

5 5
7
f 4 4 s
t 0 3 s
h 0 2 w
r 1 2 e
t 4 1 w
t 2 2 e
t 2 4 s
5 2

4 11
2
t 2 3 w
t 0 7 n
2 1

5 6
1
h 4 5 s
1713 172

7 8
1
r 6 3 n
1767 192

2 2
1
r 1 1 w
400 100

14 2
3
r 7 0 n
h 12 0 w
t 1 0 n
4 1

8 9
3
r 7 3 n
h 3 4 e
h 3 8 n
218 50

8 8
6
f 0 0 e
h 1 5 n
t 2 2 n
h 3 1 s
r 4 5 n
h 5 5 w
7 3

1 2
1
r 0 0 s
5 2

8 6
2
r 4 3 e
h 7 2 s
5 1

9 8
7
r 8 5 s
r 0 4 s
r 0 2 w
r 1 2 e
t 8 1 w
t 1 7 e
h 2 4 s
5 2

4 8
2
r 2 3 w
h 0 7 n
2 1

5 6
1
f 4 5 s
10 5

8 4
1
h 6 3 n
15 5

1 8
1
f 0 4 w
200 100

4 2
3
h 3 0 n
h 2 0 w
h 1 0 n
4 1

8 9
3
f 7 3 n
f 3 4 e
r 3 8 n
100 50

7 7
8
f 6 3 n
f 0 0 n
f 0 0 n
f 0 0 n
f 0 0 n
f 0 0 n
f 3 4 e
r 3 3 n
100 50

8 9
7
f 7 3 n
f 3 4 e
r 3 8 n
f 1 1 n
f 1 1 n
f 0 0 n
f 0 0 n
100 50

9 9
10
f 7 3 n
f 3 4 e
r 3 8 n
f 1 2 n
f 2 1 n
f 3 0 n
f 4 0 n
f 5 0 n
f 6 0 n
f 7 0 n
100 50

8 9
10
r 7 3 n
f 3 4 e
f 3 4 e
f 3 4 e
f 3 4 e
f 3 4 e
f 3 4 e
f 3 4 e
f 3 4 e
r 3 8 n
100 50

8 9
10
t 7 3 n
r 3 4 e
t 3 8 n
f 3 4 e
f 3 4 e
f 3 4 e
f 3 4 e
f 3 4 e
f 3 4 e
f 3 4 e
100 50
